﻿<?xml version="1.0" encoding="UTF-8"?>
<TestRun id="1f868193-08fc-4368-b2b8-c32eeb56ca13" name="jose.sutilo@UKFHL1796 2012-06-12 13:55:49" runUser="WDSGLOBAL\jose.sutilo" xmlns="http://microsoft.com/schemas/VisualStudio/TeamTest/2010">
  <TestSettings name="Local" id="31166934-842a-45eb-8234-e9bf92c7eff7">
    <Description>These are default test settings for a local test run.</Description>
    <Deployment enabled="false" runDeploymentRoot="jose.sutilo_UKFHL1796 2012-06-12 13_55_49">
      <DeploymentItem filename="C:\Users\jose.sutilo\workspace\bitbucket\traininggame\Game1\Game1\Game1\bin\x86\Debug\Game1.exe" />
    </Deployment>
    <Execution>
      <TestTypeSpecific />
      <AgentRule name="Execution Agents">
      </AgentRule>
    </Execution>
  </TestSettings>
  <Times creation="2012-06-12T13:55:49.9890966+01:00" queuing="2012-06-12T13:55:51.1579142+01:00" start="2012-06-12T13:55:51.2679912+01:00" finish="2012-06-12T13:55:52.3677605+01:00" />
  <ResultSummary outcome="Completed">
    <Counters total="1" executed="1" passed="1" error="0" failed="0" timeout="0" aborted="0" inconclusive="0" passedButRunAborted="0" notRunnable="0" notExecuted="0" disconnected="0" warning="0" completed="0" inProgress="0" pending="0" />
  </ResultSummary>
  <TestDefinitions>
    <UnitTest name="aPlayerGetsCreatedWithTheRightValues" storage="c:\users\jose.sutilo\workspace\bitbucket\traininggame\game1\cannonstest\bin\debug\cannonstest.dll" id="a656fe1f-1561-7c79-417a-c36a11886ce4">
      <Execution id="7873aca6-df4b-426a-9716-12313bcffc89" />
      <TestMethod codeBase="C:/Users/jose.sutilo/workspace/bitbucket/traininggame/Game1/CannonsTest/bin/Debug/CannonsTest.DLL" adapterTypeName="Microsoft.VisualStudio.TestTools.TestTypes.Unit.UnitTestAdapter, Microsoft.VisualStudio.QualityTools.Tips.UnitTest.Adapter, Version=10.0.0.0, Culture=neutral, PublicKeyToken=b03f5f7f11d50a3a" className="CannonsTest.PlayerTest, CannonsTest, Version=1.0.0.0, Culture=neutral, PublicKeyToken=null" name="aPlayerGetsCreatedWithTheRightValues" />
    </UnitTest>
  </TestDefinitions>
  <TestLists>
    <TestList name="Results Not in a List" id="8c84fa94-04c1-424b-9868-57a2d4851a1d" />
    <TestList name="All Loaded Results" id="19431567-8539-422a-85d7-44ee4e166bda" />
  </TestLists>
  <TestEntries>
    <TestEntry testId="a656fe1f-1561-7c79-417a-c36a11886ce4" executionId="7873aca6-df4b-426a-9716-12313bcffc89" testListId="8c84fa94-04c1-424b-9868-57a2d4851a1d" />
  </TestEntries>
  <Results>
    <UnitTestResult executionId="7873aca6-df4b-426a-9716-12313bcffc89" testId="a656fe1f-1561-7c79-417a-c36a11886ce4" testName="aPlayerGetsCreatedWithTheRightValues" computerName="UKFHL1796" duration="00:00:00.2905559" startTime="2012-06-12T13:55:51.3870745+01:00" endTime="2012-06-12T13:55:52.1546114+01:00" testType="13cdc9d9-ddb5-4fa4-a97d-d965ccfc6d4b" outcome="Passed" testListId="8c84fa94-04c1-424b-9868-57a2d4851a1d" relativeResultsDirectory="7873aca6-df4b-426a-9716-12313bcffc89">
    </UnitTestResult>
  </Results>
</TestRun>